<?xml version="1.0" encoding="UTF-8"?>
<svg width="142px" height="32px" viewBox="0 0 142 32" version="1.1" xmlns="http://www.w3.org/2000/svg" xmlns:xlink="http://www.w3.org/1999/xlink">
    <!-- Generator: Sketch 52.1 (67048) - http://www.bohemiancoding.com/sketch -->
    <title>Group 32</title>
    <desc>Created with Sketch.</desc>
    <g id="Page-1" stroke="none" stroke-width="1" fill="none" fill-rule="evenodd">
        <g id="Site-4" transform="translate(-118.000000, -46.000000)">
            <g id="Top" transform="translate(-185.000000, -339.000000)">
                <g id="Group-32" transform="translate(303.000000, 385.000000)">
                    <!-- <path d="M22.93856,44.2654616 C22.9358718,44.4008368 22.988352,44.5314845 23.083941,44.6273825 C23.1795299,44.7232805 23.3100076,44.7761821 23.4453907,44.7739308 C23.582532,44.7768572 23.7151297,44.7247208 23.8135515,44.6291726 C23.9119733,44.5336244 23.9680148,44.4026294 23.9691523,44.2654616 L23.9691523,43.9770924 C23.9680148,43.8399246 23.9119733,43.7089296 23.8135515,43.6133814 C23.7151297,43.5178332 23.582532,43.4656968 23.4453907,43.4686232 C23.3100076,43.4663719 23.1795299,43.5192735 23.083941,43.6151715 C22.988352,43.7110695 22.9358718,43.8417172 22.93856,43.9770924 L22.93856,44.2654616 Z M23.0401446,55.2333232 C23.0359956,55.3466601 23.0790851,55.4566329 23.1591247,55.5369831 C23.2391642,55.6173333 23.3489693,55.6608485 23.4623215,55.6571385 C23.5739493,55.6600362 23.6816114,55.6156653 23.7587829,55.5349577 C23.8359544,55.45425 23.8754603,55.3447093 23.8675676,55.2333232 L23.8675676,47.2998924 C23.8730691,47.1485024 23.7954415,47.0061974 23.6651741,46.9288695 C23.5349067,46.8515417 23.3728055,46.8515417 23.2425381,46.9288695 C23.1122708,47.0061974 23.0346431,47.1485024 23.0401446,47.2998924 L23.0401446,55.2333232 Z M28.3569523,55.7417924 C28.7720345,55.7406389 29.1836983,55.6666984 29.5732369,55.5233308 C29.7316354,55.4766821 29.8412155,55.3323463 29.843583,55.1672385 C29.8363237,54.9649363 29.6744667,54.8023653 29.4721984,54.7942155 C29.1549878,54.8956424 28.8252514,54.9526202 28.4923984,54.9635232 C27.4956676,54.9635232 26.7698292,54.522777 26.7698292,53.2857385 L26.7698292,47.706777 L29.4721984,47.706777 C29.6803751,47.7058209 29.8511989,47.5417243 29.8605138,47.3337539 C29.8524499,47.1224476 29.6834689,46.9527536 29.4721984,46.9438001 L26.769283,46.9438001 L26.769283,44.5369001 C26.7706069,44.4243813 26.7266062,44.3160611 26.6471922,44.2363388 C26.5677781,44.1566166 26.4596292,44.1121966 26.3471061,44.1130847 C26.2363321,44.1129683 26.1303389,44.1582033 26.0537834,44.2382667 C25.9772279,44.3183302 25.936784,44.4262424 25.94186,44.5369001 L25.94186,46.9454385 L25.0133984,46.9454385 C24.8052218,46.9463947 24.6343979,47.1104913 24.625083,47.3184616 C24.6328878,47.5298807 24.8020141,47.6997206 25.0133984,47.7084155 L25.94186,47.7084155 L25.94186,53.3687539 C25.94186,55.012677 27.0226984,55.7417924 28.3569523,55.7417924 Z M30.86926,46.6898385 C30.8676066,46.757641 30.893738,46.8231732 30.9415926,46.8712341 C30.9894472,46.9192949 31.0548664,46.9457079 31.1226753,46.9443462 C31.4593098,46.8468512 31.762956,46.6593383 32.0008907,46.4020155 C32.3050984,46.0967155 32.4569292,45.5882462 32.4569292,44.6390308 L32.4569292,44.2146693 C32.4632934,44.0113868 32.358477,43.8207622 32.1834134,43.7172393 C32.0083498,43.6137163 31.7908085,43.6137163 31.6157449,43.7172393 C31.4406814,43.8207622 31.3358649,44.0113868 31.3422292,44.2146693 L31.3422292,44.5707616 C31.3279878,44.8536248 31.5212415,45.1049703 31.7982676,45.1638847 C31.8623696,45.729204 31.5356652,46.2662216 31.00416,46.4691924 C30.9236945,46.5141633 30.8723946,46.5977324 30.8687138,46.6898385 L30.86926,46.6898385 Z M36.020583,55.7587232 C37.6759753,55.7587232 38.9932984,54.7756462 38.9932984,53.2327616 L38.9932984,53.1989001 C38.9932984,51.6734924 37.5405292,51.164477 36.1532984,50.7750693 C34.920083,50.418977 33.7545907,50.0650693 33.7545907,49.0967385 L33.7545907,49.062877 C33.7545907,48.1983155 34.5317676,47.5538539 35.7136446,47.5538539 C36.5622498,47.5722017 37.3904777,47.8173511 38.1123523,48.2638539 C38.1830678,48.3086108 38.2651496,48.3321169 38.3488369,48.331577 C38.5718046,48.3280436 38.7514493,48.1476726 38.754083,47.9246924 C38.7500661,47.7711106 38.6676045,47.6303075 38.5356215,47.5516693 C37.6870199,47.0627884 36.7293212,46.7946328 35.7502369,46.7717616 C34.0779138,46.7717616 32.9102369,47.7717693 32.9102369,49.162277 L32.9102369,49.1961385 C32.9102369,50.7390232 34.4640446,51.1622924 35.8660215,51.569177 C37.06756,51.9083385 38.1462138,52.279177 38.1462138,53.2983001 L38.1462138,53.3354385 C38.1462138,54.3354462 37.2341369,54.9793616 36.0708292,54.9793616 C35.0328899,54.9694165 34.0258996,54.6246225 33.1996984,53.9962847 C33.1205392,53.9407203 33.0260649,53.9111374 32.9293523,53.9116308 C32.7063845,53.9151643 32.5267399,54.0955353 32.5241061,54.3185155 C32.5283085,54.4422208 32.5832154,54.5587499 32.6759369,54.6407462 C33.650861,55.3450946 34.8175283,55.735127 36.0200369,55.7587232 L36.020583,55.7587232 Z M47.2860984,55.7931308 C48.5894227,55.8278344 49.8244511,55.2112417 50.5799523,54.1486616 L50.5799523,55.2338693 C50.5721724,55.3836698 50.6476653,55.5255437 50.7762546,55.6027805 C50.9048439,55.6800172 51.0655529,55.6800172 51.1941422,55.6027805 C51.3227315,55.5255437 51.3982244,55.3836698 51.3904446,55.2338693 L51.3904446,50.198877 C51.4444509,49.2993326 51.1269878,48.4170302 50.5122292,47.7581155 C49.7703868,47.0887978 48.7901446,46.7466285 47.7929292,46.8089001 C46.8103362,46.8112606 45.8404557,47.0311624 44.9529292,47.4528155 C44.8101596,47.5227181 44.7187583,47.6668915 44.7164446,47.8258385 C44.7242493,48.0372576 44.8933757,48.2070975 45.10476,48.2157924 C45.1696496,48.2127876 45.2330672,48.195441 45.2904523,48.1650001 C46.0519428,47.7881207 46.8897585,47.5909986 47.7394061,47.5888078 C49.5127676,47.5888078 50.5794061,48.4872308 50.5794061,50.2332847 L50.5794061,50.6046693 C49.6499085,50.347647 48.6889912,50.2220861 47.72466,50.2316462 C45.49526,50.2316462 43.9561984,51.2485847 43.9561984,53.0454308 L43.9561984,53.0792924 C43.958383,54.8772308 45.6814984,55.7931308 47.2860984,55.7931308 Z M47.3368907,55.0132232 C46.0195676,55.0132232 44.8371446,54.2846539 44.8371446,53.0301385 L44.8371446,52.9957308 C44.8371446,51.7941924 45.8508061,50.9787847 47.6771446,50.9787847 C48.6639065,50.981535 49.6461198,51.1126192 50.5990676,51.3687385 L50.5990676,52.3518155 C50.5963369,53.9280155 49.0933215,55.012677 47.3347061,55.012677 L47.3368907,55.0132232 Z M52.9813907,55.2316847 C52.9800668,55.3442035 53.0240675,55.4525236 53.1034816,55.5322459 C53.1828957,55.6119682 53.2910445,55.6563881 53.4035676,55.6555001 C53.5143417,55.6556164 53.6203348,55.6103815 53.6968903,55.530318 C53.7734458,55.4502546 53.8138898,55.3423424 53.8088138,55.2316847 L53.8088138,53.7226616 C54.5414516,54.9919985 55.8905501,55.7794399 57.356083,55.7931308 C58.5159227,55.7606187 59.6137858,55.2623319 60.4018702,54.4107404 C61.1899547,53.5591489 61.6018323,52.4260337 61.5445369,51.2671539 L61.5445369,51.2327462 C61.6003671,50.0775178 61.1869677,48.9487561 60.3982358,48.1028414 C59.6095039,47.2569266 58.5123889,46.7656622 57.356083,46.7406308 C55.6498984,46.7406308 54.5521292,47.7406385 53.8088138,48.8766385 L53.8088138,43.5702078 C53.8131273,43.4568246 53.7700909,43.346755 53.6900144,43.2663678 C53.6099379,43.1859806 53.5000359,43.1425181 53.3866369,43.1463924 C53.2749579,43.1433232 53.1671924,43.1876407 53.0899824,43.2683886 C53.0127724,43.3491366 52.9733244,43.4587782 52.9813907,43.5702078 L52.9813907,55.2333232 L52.9813907,55.2316847 Z M57.2714292,54.9941078 C56.3121118,54.9702764 55.4018944,54.5649104 54.7424175,53.8678106 C54.0829406,53.1707109 53.7286463,52.2394253 53.7580215,51.2802616 L53.7580215,51.249677 C53.7314353,50.2912818 54.0866623,49.3615792 54.7455554,48.6650965 C55.4044485,47.9686138 56.3130336,47.5624043 57.2714292,47.5358308 C59.0786523,47.5358308 60.6493907,48.9935155 60.6493907,51.2655155 L60.6493907,51.299377 C60.6493907,53.6227155 59.1463753,54.9957462 57.2714292,54.9957462 L57.2714292,54.9941078 Z M66.5560446,55.7909462 C67.7474341,55.786556 68.8875278,55.3056067 69.7220876,54.4553489 C70.5566474,53.6050911 71.0162697,52.4562338 70.99846,51.2649693 L70.99846,51.2327462 C71.0196984,50.0494632 70.5647609,48.9072374 69.7358117,48.0625759 C68.9068625,47.2179144 67.7733793,46.741612 66.5899061,46.7406308 C65.3985165,46.7450211 64.2584229,47.2259704 63.4238631,48.0762282 C62.5893033,48.926486 62.129681,50.0753432 62.1474907,51.2666078 L62.1474907,51.3004693 C62.126104,52.4838461 62.5809759,53.6262137 63.4099413,54.4709944 C64.2389067,55.315775 65.3724749,55.7921522 66.5560446,55.7931308 L66.5560446,55.7909462 Z M66.5899061,55.0110385 C65.6196696,54.9931913 64.6972516,54.5864222 64.0297555,53.8820598 C63.3622594,53.1776974 63.0056183,52.234764 63.0399061,51.2649693 L63.0399061,51.2327462 C62.9986165,50.2703594 63.3489236,49.3322902 64.010915,48.6325326 C64.6729063,47.9327749 65.5901178,47.531014 66.5533138,47.5189001 C67.5235014,47.5368953 68.4458311,47.9437101 69.1132954,48.648039 C69.7807598,49.3523679 70.1374511,50.2952155 70.1033138,51.2649693 L70.1033138,51.2988308 C70.1447576,52.2612588 69.7945021,53.199416 69.132478,53.8992082 C68.470454,54.5990005 67.5531517,55.0007148 66.5899061,55.012677 L66.5899061,55.0110385 Z M79.366083,47.2982539 C79.3703966,47.1848708 79.3273601,47.0748012 79.2472836,46.994414 C79.1672072,46.9140267 79.0573051,46.8705642 78.9439061,46.8744385 C78.8321846,46.8713839 78.7243752,46.9156859 78.6470817,46.9964124 C78.5697882,47.0771388 78.5302101,47.1867705 78.5381138,47.2982539 L78.5381138,51.9405616 C78.5731211,52.752451 78.2726275,53.542995 77.7071638,54.1266394 C77.1417002,54.7102838 76.3610581,55.0356362 75.5484676,55.0263308 C73.8089676,55.0263308 72.8122369,53.8564693 72.8122369,52.0771001 L72.8122369,47.2998924 C72.8165504,47.1865092 72.7735139,47.0764397 72.6934375,46.9960524 C72.613361,46.9156652 72.503459,46.8722027 72.39006,46.876077 C72.278381,46.8730078 72.1706155,46.9173253 72.0934055,46.9980733 C72.0161955,47.0788212 71.9767475,47.1884628 71.9848138,47.2998924 L71.9848138,52.2327539 C71.9848138,54.3010385 73.2513446,55.7925847 75.4304984,55.7925847 C76.7294152,55.8376496 77.9385324,55.1319417 78.5381138,53.9788078 L78.5381138,55.2349616 C78.5381138,55.463599 78.723461,55.6489462 78.9520984,55.6489462 C79.1807358,55.6489462 79.366083,55.463599 79.366083,55.2349616 L79.366083,47.2998924 L79.366083,47.2982539 Z M83.8216061,55.7401539 C84.2366883,55.7390005 84.6483521,55.6650599 85.0378907,55.5216924 C85.1961787,55.474999 85.3055718,55.3306178 85.3076907,55.1656001 C85.3004314,54.9632979 85.1385744,54.8007268 84.9363061,54.792577 C84.6191089,54.8940587 84.2893649,54.9510379 83.9565061,54.9618847 C82.9603215,54.9618847 82.2339369,54.5211385 82.2339369,53.2841001 L82.2339369,47.706777 L84.9363061,47.706777 C85.1444828,47.7058209 85.3153066,47.5417243 85.3246215,47.3337539 C85.3168167,47.1223349 85.1476904,46.952495 84.9363061,46.9438001 L82.2339369,46.9438001 L82.2339369,44.5369001 C82.2352608,44.4243813 82.1912601,44.3160611 82.111846,44.2363388 C82.0324319,44.1566166 81.9242831,44.1121966 81.81176,44.1130847 C81.7008912,44.1128188 81.5947546,44.1579883 81.5180795,44.2380688 C81.4414045,44.3181494 81.4008871,44.4261474 81.4059676,44.5369001 L81.4059676,46.9454385 L80.4775061,46.9454385 C80.2691179,46.9461041 80.09797,47.1102811 80.0886446,47.3184616 C80.0964683,47.530082 80.2659085,47.6999981 80.4775061,47.7084155 L81.4059676,47.7084155 L81.4059676,53.3687539 C81.4059676,55.012677 82.4873523,55.7417924 83.8216061,55.7417924 L83.8216061,55.7401539 Z M93.6179676,55.7401539 C94.0330498,55.7390005 94.4447137,55.6650599 94.8342523,55.5216924 C94.9925402,55.474999 95.1019333,55.3306178 95.1040523,55.1656001 C95.0967929,54.9632979 94.9349359,54.8007268 94.7326676,54.792577 C94.415457,54.8940039 94.0857207,54.9509818 93.7528676,54.9618847 C92.756683,54.9618847 92.0302984,54.5211385 92.0302984,53.2841001 L92.0302984,47.706777 L94.7326676,47.706777 C94.9408443,47.7058209 95.1116681,47.5417243 95.120983,47.3337539 C95.1131783,47.1223349 94.9440519,46.952495 94.7326676,46.9438001 L92.0302984,46.9438001 L92.0302984,44.5369001 C92.0316223,44.4243813 91.9876216,44.3160611 91.9082076,44.2363388 C91.8287935,44.1566166 91.7206446,44.1121966 91.6081215,44.1130847 C91.4972527,44.1128188 91.3911162,44.1579883 91.3144411,44.2380688 C91.237766,44.3181494 91.1972486,44.4261474 91.2023292,44.5369001 L91.2023292,46.9454385 L90.2738676,46.9454385 C90.065691,46.9463947 89.8948672,47.1104913 89.8855523,47.3184616 C89.893357,47.5298807 90.0624833,47.6997206 90.2738676,47.7084155 L91.2023292,47.7084155 L91.2023292,53.3687539 C91.2023292,55.012677 92.2831676,55.7417924 93.6179676,55.7417924 L93.6179676,55.7401539 Z M95.8331676,44.2654616 C95.8304795,44.4008368 95.8829597,44.5314845 95.9785486,44.6273825 C96.0741376,44.7232805 96.2046153,44.7761821 96.3399984,44.7739308 C96.4771397,44.7768572 96.6097374,44.7247208 96.7081592,44.6291726 C96.806581,44.5336244 96.8626225,44.4026294 96.86376,44.2654616 L96.86376,43.9770924 C96.8626225,43.8399246 96.806581,43.7089296 96.7081592,43.6133814 C96.6097374,43.5178332 96.4771397,43.4656968 96.3399984,43.4686232 C96.2046153,43.4663719 96.0741376,43.5192735 95.9785486,43.6151715 C95.8829597,43.7110695 95.8304795,43.8417172 95.8331676,43.9770924 L95.8331676,44.2654616 Z M95.9347523,55.2333232 C95.9306033,55.3466601 95.9736928,55.4566329 96.0537324,55.5369831 C96.1337719,55.6173333 96.243577,55.6608485 96.3569292,55.6571385 C96.4686081,55.6602077 96.5763736,55.6158902 96.6535836,55.5351423 C96.7307936,55.4543944 96.7702417,55.3447527 96.7621753,55.2333232 L96.7621753,47.2998924 C96.7676768,47.1485024 96.6900491,47.0061974 96.5597818,46.9288695 C96.4295144,46.8515417 96.2674132,46.8515417 96.1371458,46.9288695 C96.0068785,47.0061974 95.9292508,47.1485024 95.9347523,47.2998924 L95.9347523,55.2333232 Z M98.4847446,55.2333232 C98.4807509,55.3467119 98.5239668,55.4566779 98.6040908,55.537009 C98.6842149,55.6173401 98.794069,55.6608395 98.9074676,55.6571385 C99.0190955,55.6600362 99.1267575,55.6156653 99.203929,55.5349577 C99.2811005,55.45425 99.3206065,55.3447093 99.3127138,55.2333232 L99.3127138,50.6046693 C99.3127138,48.856977 100.528998,47.5025155 102.065875,47.5025155 C103.602752,47.5025155 104.582552,48.6041078 104.582552,50.4015001 L104.582552,55.232777 C104.578403,55.3461139 104.621493,55.4560868 104.701532,55.536437 C104.781572,55.6167871 104.891377,55.6603024 105.004729,55.6565924 C105.116408,55.6596616 105.224174,55.6153441 105.301384,55.5345961 C105.378594,55.4538482 105.418042,55.3442066 105.409975,55.232777 L105.409975,50.5544232 C105.409975,48.6221308 106.677052,47.5030616 108.129275,47.5030616 C109.716945,47.5030616 110.679814,48.5877232 110.679814,50.4522924 L110.679814,55.232777 C110.675665,55.3461139 110.718754,55.4560868 110.798794,55.536437 C110.878833,55.6167871 110.988639,55.6603024 111.101991,55.6565924 C111.213712,55.659647 111.321522,55.615345 111.398815,55.5346186 C111.476109,55.4538922 111.515687,55.3442605 111.507783,55.232777 L111.507783,50.3512539 C111.507783,48.1813847 110.240706,46.7406308 108.196998,46.7406308 C106.889862,46.7169908 105.683647,47.4407198 105.089383,48.6052001 C104.590491,47.4503655 103.441531,46.7130446 102.183845,46.7406308 C100.971329,46.7261933 99.8567839,47.4046308 99.3127138,48.4883232 L99.3127138,47.2998924 C99.3127138,47.071255 99.1273666,46.8859078 98.8987292,46.8859078 C98.6700918,46.8859078 98.4847446,47.071255 98.4847446,47.2998924 L98.4847446,55.2333232 Z M113.45646,50.8597232 C113.608837,48.9443616 114.92616,47.5030616 116.632345,47.5030616 C118.608329,47.5030616 119.60506,49.1136693 119.723029,50.8597232 L113.455368,50.8597232 L113.45646,50.8597232 Z M120.162137,54.3856924 C120.244554,54.3119376 120.293446,54.2078458 120.297583,54.0973232 C120.293103,53.8776305 120.111488,53.7031037 119.891791,53.7073693 C119.788069,53.7068734 119.688937,53.750095 119.618714,53.8264308 C118.894294,54.5900869 117.885901,55.0195436 116.833329,55.012677 C115.144075,55.012677 113.607198,53.7565232 113.454821,51.6057693 L120.211291,51.6057693 C120.4261,51.5982632 120.600777,51.4301772 120.616537,51.2158155 C120.616537,48.7406462 119.07966,46.7406308 116.664021,46.7406308 C114.333583,46.7406308 112.576606,48.7406462 112.576606,51.249677 L112.576606,51.2835385 C112.576606,53.9788078 114.536206,55.7925847 116.799468,55.7925847 C118.071349,55.8352173 119.298683,55.3215518 120.161045,54.3856924 L120.162137,54.3856924 Z M121.517145,54.6402001 L121.517145,55.097877 C121.51078,55.3011595 121.615597,55.4917841 121.79066,55.595307 C121.965724,55.69883 122.183265,55.69883 122.358329,55.595307 C122.533392,55.4917841 122.638209,55.3011595 122.631845,55.097877 L122.631845,54.6402001 C122.631845,54.3320825 122.382066,54.0823039 122.073948,54.0823039 C121.765831,54.0823039 121.516052,54.3320825 121.516052,54.6402001 L121.517145,54.6402001 Z" id="it_s_about_time." fill="#FFFFFF"></path> -->
                    <path d="M34.9540132,27.0134816 C34.945368,27.8497107 35.2726512,28.654434 35.8624955,29.2472558 C36.4523398,29.8400775 37.255405,30.1714085 38.091667,30.1669739 L48.5232055,30.1669739 C54.9623593,30.1669739 59.199967,27.5454355 59.199967,22.3023585 L59.199967,22.2204355 C59.199967,18.370597 57.162267,16.4459509 53.8613132,15.1750509 C55.8990132,14.0281278 57.6106593,12.2258201 57.6106593,8.99095085 L57.6106593,8.90902778 C57.6618012,7.08355735 56.9533923,5.31866596 55.6543363,4.03515085 C54.0262516,2.39942009 51.4587824,1.4999047 48.1987901,1.4999047 L38.0949439,1.4999047 C37.2586819,1.49547013 36.4556167,1.82680113 35.8657724,2.41962286 C35.2759282,3.01244459 34.9486449,3.81716789 34.9572901,4.65339701 L34.9572901,27.0134816 L34.9540132,27.0134816 Z M41.066567,13.0865585 L41.066567,7.02425085 L47.2610439,7.02425085 C49.9098901,7.02425085 51.3768593,8.08925085 51.3768593,9.97348162 L51.3768593,10.0554047 C51.3768593,12.1854047 49.6242516,13.0860124 46.8536132,13.0860124 L41.0643824,13.0860124 L41.066567,13.0865585 Z M41.066567,24.6360739 L41.066567,18.3312739 L48.3205824,18.3312739 C51.5401593,18.3312739 52.966167,19.5191585 52.966167,21.4443509 L52.966167,21.5262739 C52.966167,23.6562739 51.2954824,24.6393509 48.5242978,24.6393509 L41.0671132,24.6393509 L41.066567,24.6360739 Z M62.9935516,27.3002124 C62.9935516,29.01077 64.3802325,30.3974509 66.0907901,30.3974509 C67.8013477,30.3974509 69.1880286,29.01077 69.1880286,27.3002124 L69.1880286,3.13836624 C69.1880286,1.42780867 67.8013477,0.041127778 66.0907901,0.041127778 C64.3802325,0.041127778 62.9935516,1.42780867 62.9935516,3.13836624 L62.9935516,27.3002124 Z M84.7140901,30.6585124 C91.5197132,30.6585124 96.5727286,25.5394124 96.5727286,19.2318816 L96.5727286,19.1499585 C96.5727286,12.8429739 91.5601286,7.80525085 84.795467,7.80525085 C77.9898439,7.80525085 72.9368286,12.924897 72.9368286,19.2318816 L72.9368286,19.3138047 C72.9335516,25.6213355 77.9466978,30.6585124 84.7113593,30.6585124 L84.7140901,30.6585124 Z M84.795467,25.2936432 C81.3721747,25.2936432 79.0493824,22.4678432 79.0493824,19.2313355 L79.0493824,19.1494124 C79.0493824,15.913997 81.1684593,13.1701201 84.7140901,13.1701201 C88.1373824,13.1701201 90.4601747,15.9959201 90.4601747,19.2324278 L90.4601747,19.3143509 C90.4574439,22.5497662 88.338367,25.2936432 84.7927363,25.2936432 L84.795467,25.2936432 Z M110.34509,30.6585124 C113.931136,30.6585124 116.253929,29.5115893 118.087913,27.8327124 C118.908657,27.1101083 119.199868,25.9568061 118.820555,24.9311851 C118.441243,23.905564 117.469684,23.2192811 116.376267,23.2046047 C115.772993,23.2157063 115.188502,23.4163324 114.705582,23.7780662 C113.57196,24.7541794 112.126142,25.2918563 110.630182,25.2936432 C107.247852,25.2936432 105.087813,22.5907278 105.087813,19.2313355 L105.087813,19.1494124 C105.087813,15.913997 107.288813,13.1701201 110.385505,13.1701201 C111.801586,13.1534599 113.176199,13.6479247 114.25719,14.5628124 C114.769444,14.9621711 115.400683,15.1784803 116.050213,15.1772355 C117.223505,15.1862189 118.277222,14.4606613 118.687384,13.3613608 C119.097545,12.2620602 118.776621,11.0236086 117.884198,10.2618509 C116.050213,8.70531239 113.727421,7.80415855 110.426467,7.80415855 C107.376098,7.74682069 104.433411,8.93165208 102.273829,11.0867025 C100.114247,13.2417529 98.9232367,16.1819454 98.974167,19.2324278 L98.974167,19.3143509 C98.929512,22.3411403 100.114052,25.2566861 102.257069,27.3946591 C104.400085,29.5326321 107.318414,30.7102993 110.34509,30.6585124 Z M122.285652,27.3002124 C122.270828,28.4164525 122.857843,29.4543031 123.82214,30.0167463 C124.786437,30.5791894 125.978797,30.5791894 126.943094,30.0167463 C127.907391,29.4543031 128.494406,28.4164525 128.479582,27.3002124 L128.479582,23.7371047 L130.965675,21.4847662 L136.385705,28.9796355 C136.94567,29.9205427 137.98166,30.4728319 139.074967,30.4132893 C139.837049,30.4345873 140.5752,30.1459779 141.120729,29.6134179 C141.666259,29.0808579 141.972541,28.3498629 141.969582,27.5874893 C141.943781,26.8507061 141.671021,26.1439913 141.195136,25.5809201 L135.367675,17.6764355 L140.257936,13.4579432 C141.113759,12.6387124 141.68449,11.8194816 141.68449,10.7550278 C141.702508,10.0204059 141.422384,9.30977615 140.907942,8.78504488 C140.393499,8.26031361 139.688555,7.96617465 138.953721,7.96964316 C137.853221,7.96964316 137.119736,8.50214316 136.222952,9.36233547 L128.477398,16.7337739 L128.477398,3.13836624 C128.492221,2.02212613 127.905207,0.984275502 126.940909,0.421832358 C125.976612,-0.140610786 124.784253,-0.140610786 123.819955,0.421832358 C122.855658,0.984275502 122.268643,2.02212613 122.283467,3.13836624 L122.283467,27.3002124 L122.285652,27.3002124 Z" id="Block" fill="#1ABB99"></path>
                    <path d="M3.07075,22.6741231 L20.1872115,22.6741231 C21.0000492,22.6754251 21.7790455,22.9997228 22.3526814,23.5756122 C22.9263172,24.1515016 23.247558,24.9317635 23.2456731,25.7446 C23.2475581,26.5574869 22.9263347,27.337805 22.3527145,27.9137811 C21.7790942,28.4897573 21.0000993,28.8141763 20.1872115,28.8156231 L3.07075,28.8156231 C2.25786221,28.8141763 1.47886729,28.4897573 0.905247088,27.9137811 C0.331626886,27.337805 0.0104034738,26.5574869 0.0122884615,25.7446 C0.0104034994,24.9317635 0.33164429,24.1515016 0.905280157,23.5756122 C1.47891602,22.9997228 2.25791234,22.6754251 3.07075,22.6741231 Z M3.07075,12.7161 L12.8507269,12.7161 C14.5466553,12.7161 15.9214769,14.0909216 15.9214769,15.78685 C15.9214769,17.4827784 14.5466553,18.8576 12.8507269,18.8576 L3.07075,18.8576 C1.3748216,18.8576 -2.91201251e-13,17.4827784 -2.91322522e-13,15.78685 C-2.91443792e-13,14.0909216 1.3748216,12.7161 3.07075,12.7161 Z M3.07075,2.73076923 L26.7028269,2.73076923 C28.3987553,2.73076923 29.7735769,4.10559084 29.7735769,5.80151923 C29.7735769,7.49744763 28.3987553,8.87226923 26.7028269,8.87226923 L3.07075,8.87226923 C1.3748216,8.87226923 -2.91201251e-13,7.49744763 -2.91322522e-13,5.80151923 C-2.91443792e-13,4.10559084 1.3748216,2.73076923 3.07075,2.73076923 Z" id="Icon" fill="#FFFFFF"></path>
                </g>
            </g>
        </g>
    </g>
</svg>